{
    "NoiseAnalysis": {
        "NoiseOccupancy": {
            "enable": 1,
            "gaus": 0,
            "main": {
                "nbinsx": 6,
                "xhigh": 5.5,
                "xlow": -0.5
            },
            "occupancy": 1,
            "overwrite": true,
            "rms": 0
        }
    },
    "OccupancyAnalysis": {
        "OccupancyMap": {
            "enable": 1,
            "gaus": 0,
            "main": {
                "nbinsx": 6,
                "xaxisTitle": "Occupancy [%]",
                "xhigh": 5.5,
                "xlow": -0.5
            },
            "occupancy": 1,
            "overwrite": true,
            "rms": 0
        }
    },
    "ScurveFitter": {
        "NoiseMap": {
            "enable": 1,
            "gaus": 1,
            "main": {
                "fit": true,
                "nbinsx": 2001,
                "xhigh": 10002.5,
                "xlow": -2.5
            },
            "occupancy": 0,
            "overwrite": false,
            "rms": 1
        },
        "ThresholdMap": {
            "enable": 1,
            "gaus": 1,
            "main": {
                "fit": true,
                "nbinsx": 500,
                "xhigh": 9990,
                "xlow": -10
            },
            "occupancy": 0,
            "overwrite": false,
            "rms": 1
        },
        "sCurve": {
            "enable": 1,
            "gaus": 0,
            "main": {
                "fit": true,
                "nbinsx": 200,
                "xhigh": 200,
                "xlow": 0
            },
            "occupancy": 0,
            "overwrite": false,
            "rms": 0
        }
    },
    "TotAnalysis": {
        "MeanTotMap": {
            "enable": 1,
            "gaus": 0,
            "main": {
                "nbinsx": 14,
                "xhigh": 14.5,
                "xlow": 0.5
            },
            "occupancy": 0,
            "overwrite": true,
            "rms": 1
        },
        "SigmaTotMap": {
            "enable": 1,
            "gaus": 0,
            "main": {
                "nbinsx": 101,
                "xhigh": 10.5,
                "xlow": -0.05
            },
            "occupancy": 0,
            "overwrite": true,
            "rms": 1
        }
    }
}